sim/test3.log
# vsim -c -do "coverage save -onexit -directive -cvg -codeall counter_cov3.ucdb;add wave -r /*;run -all; exit" -coverage -novopt -sva -sv_seed random -wlf wave_file3.wlf -l test3.log work.counter_top "+UVM_TESTNAME=counter_reset_test" 
# Start time: 21:06:04 on Nov 27,2022
# ** Warning: (vsim-8891) All optimizations are turned off because the -novopt switch is in effect. This will cause your simulation to run very slowly. If you are using this switch to preserve visibility for Debug or PLI features please see the User's Manual section on Preserving Object Visibility with vopt.
# //  Questa Sim-64
# //  Version 10.5c linux_x86_64 Jul 20 2016
# //
# //  Copyright 1991-2016 Mentor Graphics Corporation
# //  All Rights Reserved.
# //
# //  QuestaSim and its associated documentation contain trade
# //  secrets and commercial or financial information that are the property of
# //  Mentor Graphics Corporation and are privileged, confidential,
# //  and exempt from disclosure under the Freedom of Information Act,
# //  5 U.S.C. Section 552. Furthermore, this information
# //  is prohibited from disclosure under the Trade Secrets Act,
# //  18 U.S.C. Section 1905.
# //
# Loading sv_std.std
# Loading work.counter_inf
# Loading mtiUvm.uvm_pkg
# Loading work.counter_pkg
# Loading work.counter_top
# Loading work.dut_top
# Loading work.counter_up_down_1
# Loading work.counter_up_down_2
# Loading mtiUvm.questa_uvm_pkg
# Loading /tools/mentor/questa/10.5c/questasim/uvm-1.1d/linux_x86_64/uvm_dpi.so
# Sv_Seed = 3910201377
# coverage save -onexit -directive -cvg -codeall counter_cov3.ucdb
# add wave -r /*
# run -all
# ----------------------------------------------------------------
# UVM-1.1d
# (C) 2007-2013 Mentor Graphics Corporation
# (C) 2007-2013 Cadence Design Systems, Inc.
# (C) 2006-2013 Synopsys, Inc.
# (C) 2011-2013 Cypress Semiconductor Corp.
# ----------------------------------------------------------------
# 
#   ***********       IMPORTANT RELEASE NOTES         ************
# 
#   You are using a version of the UVM library that has been compiled
#   with `UVM_NO_DEPRECATED undefined.
#   See http://www.eda.org/svdb/view.php?id=3313 for more details.
# 
#   You are using a version of the UVM library that has been compiled
#   with `UVM_OBJECT_MUST_HAVE_CONSTRUCTOR undefined.
#   See http://www.eda.org/svdb/view.php?id=3770 for more details.
# 
#       (Specify +UVM_NO_RELNOTES to turn off this notice)
# 
# UVM_INFO verilog_src/questa_uvm_pkg-1.2/src/questa_uvm_pkg.sv(215) @ 0: reporter [Questa UVM] QUESTA_UVM-1.2.3
# UVM_INFO verilog_src/questa_uvm_pkg-1.2/src/questa_uvm_pkg.sv(217) @ 0: reporter [Questa UVM]  questa_uvm::init(+struct)
# UVM_INFO @ 0: reporter [RNTST] Running test counter_reset_test...
# Warning: In instance '\/counter_pkg::up_down_coverage::m_reset_coverage ' the 'option.per_instance' is set to '0' (false). Assignment to members 'weight', 'goal' and 'comment' of 'option' would not have any effect.
# UVM_INFO @ 0: reporter [UVMTOP] UVM testbench topology:
# ------------------------------------------------------------------
# Name                       Type                        Size  Value
# ------------------------------------------------------------------
# uvm_test_top               counter_reset_test          -     @464 
#   m_env                    counter_env                 -     @473 
#     m_agent[0]             counter_agent               -     @489 
#       m_cfg                counter_config              -     @987 
#       m_driver             counter_driver              -     @996 
#         rsp_port           uvm_analysis_port           -     @1013
#         seq_item_port      uvm_seq_item_pull_port      -     @1004
#       m_monitor            counter_monitor             -     @1145
#         mon_pre            uvm_analysis_port           -     @1162
#         mon_sco            uvm_analysis_port           -     @1153
#       m_sequencer          counter_sequencer           -     @1022
#         rsp_export         uvm_analysis_export         -     @1030
#         seq_item_export    uvm_seq_item_pull_imp       -     @1136
#         arbitration_queue  array                       0     -    
#         lock_queue         array                       0     -    
#         num_last_reqs      integral                    32    'd1  
#         num_last_rsps      integral                    32    'd1  
#     m_agent[1]             counter_agent               -     @497 
#       m_cfg                counter_config              -     @1181
#       m_driver             counter_driver              -     @1190
#         rsp_port           uvm_analysis_port           -     @1207
#         seq_item_port      uvm_seq_item_pull_port      -     @1198
#       m_monitor            counter_monitor             -     @1339
#         mon_pre            uvm_analysis_port           -     @1356
#         mon_sco            uvm_analysis_port           -     @1347
#       m_sequencer          counter_sequencer           -     @1216
#         rsp_export         uvm_analysis_export         -     @1224
#         seq_item_export    uvm_seq_item_pull_imp       -     @1330
#         arbitration_queue  array                       0     -    
#         lock_queue         array                       0     -    
#         num_last_reqs      integral                    32    'd1  
#         num_last_rsps      integral                    32    'd1  
#     m_predictor            counter_predictor           -     @725 
#       mon_pre[0]           uvm_tlm_analysis_fifo #(T)  -     @733 
#         analysis_export    uvm_analysis_imp            -     @777 
#         get_ap             uvm_analysis_port           -     @768 
#         get_peek_export    uvm_get_peek_imp            -     @750 
#         put_ap             uvm_analysis_port           -     @759 
#         put_export         uvm_put_imp                 -     @741 
#       mon_pre[1]           uvm_tlm_analysis_fifo #(T)  -     @786 
#         analysis_export    uvm_analysis_imp            -     @830 
#         get_ap             uvm_analysis_port           -     @821 
#         get_peek_export    uvm_get_peek_imp            -     @803 
#         put_ap             uvm_analysis_port           -     @812 
#         put_export         uvm_put_imp                 -     @794 
#       pre_sco[0]           uvm_analysis_port           -     @839 
#       pre_sco[1]           uvm_analysis_port           -     @848 
#     m_scoreboard           counter_scoreboard          -     @505 
#       m_cov[0]             up_down_coverage            -     @1391
#       m_cov[1]             up_down_coverage            -     @1399
#       mon_sco[0]           uvm_tlm_analysis_fifo #(T)  -     @513 
#         analysis_export    uvm_analysis_imp            -     @557 
#         get_ap             uvm_analysis_port           -     @548 
#         get_peek_export    uvm_get_peek_imp            -     @530 
#         put_ap             uvm_analysis_port           -     @539 
#         put_export         uvm_put_imp                 -     @521 
#       mon_sco[1]           uvm_tlm_analysis_fifo #(T)  -     @566 
#         analysis_export    uvm_analysis_imp            -     @610 
#         get_ap             uvm_analysis_port           -     @601 
#         get_peek_export    uvm_get_peek_imp            -     @583 
#         put_ap             uvm_analysis_port           -     @592 
#         put_export         uvm_put_imp                 -     @574 
#       pre_sco[0]           uvm_tlm_analysis_fifo #(T)  -     @619 
#         analysis_export    uvm_analysis_imp            -     @663 
#         get_ap             uvm_analysis_port           -     @654 
#         get_peek_export    uvm_get_peek_imp            -     @636 
#         put_ap             uvm_analysis_port           -     @645 
#         put_export         uvm_put_imp                 -     @627 
#       pre_sco[1]           uvm_tlm_analysis_fifo #(T)  -     @672 
#         analysis_export    uvm_analysis_imp            -     @716 
#         get_ap             uvm_analysis_port           -     @707 
#         get_peek_export    uvm_get_peek_imp            -     @689 
#         put_ap             uvm_analysis_port           -     @698 
#         put_export         uvm_put_imp                 -     @680 
#     m_vseqr                counter_virtual_sequencer   -     @857 
#       m_seqr[0]            counter_sequencer           -     @1431
#         rsp_export         uvm_analysis_export         -     @1439
#         seq_item_export    uvm_seq_item_pull_imp       -     @1545
#         arbitration_queue  array                       0     -    
#         lock_queue         array                       0     -    
#         num_last_reqs      integral                    32    'd1  
#         num_last_rsps      integral                    32    'd1  
#       m_seqr[1]            counter_sequencer           -     @1554
#         rsp_export         uvm_analysis_export         -     @1562
#         seq_item_export    uvm_seq_item_pull_imp       -     @1668
#         arbitration_queue  array                       0     -    
#         lock_queue         array                       0     -    
#         num_last_reqs      integral                    32    'd1  
#         num_last_rsps      integral                    32    'd1  
#       rsp_export           uvm_analysis_export         -     @865 
#       seq_item_export      uvm_seq_item_pull_imp       -     @971 
#       m_env                counter_env                 -     @473 
#       arbitration_queue    array                       0     -    
#       lock_queue           array                       0     -    
#       num_last_reqs        integral                    32    'd1  
#       num_last_rsps        integral                    32    'd1  
# ------------------------------------------------------------------
# 
# UVM_INFO @ 0: uvm_test_top [uvm_test_top] End_of_elaboration
# UVM_INFO ../test//counter_reset_test.sv(122) @ 0: uvm_test_top [reset_test] This is a counter_reset test in RUN PHASE
# This is COUNTER RESET TEST
# UVM_INFO ../env//counter_scoreboard.sv(140) @ 10: uvm_test_top.m_env.m_scoreboard [PASS] check = 0 data_out_1 is matched <=> expected = 0 :: 0 = actual
# UVM_INFO ../env//counter_scoreboard.sv(140) @ 10: uvm_test_top.m_env.m_scoreboard [PASS] check = 1 data_out_1 is matched <=> expected = 0 :: 0 = actual
# UVM_INFO ../env//counter_scoreboard.sv(113) @ 10: uvm_test_top.m_env.m_scoreboard [PREV VALUE] prev_data_out[0] = 0, m_ref_trans[0].temp_data_out = 0,m_ref_trans[0].temp_enable = 0, m_ref_trans[0].temp_updown = 0, reset= 0 
# UVM_INFO ../env//counter_scoreboard.sv(113) @ 10: uvm_test_top.m_env.m_scoreboard [PREV VALUE] prev_data_out[1] = 0, m_ref_trans[1].temp_data_out = 0,m_ref_trans[1].temp_enable = 0, m_ref_trans[1].temp_updown = 0, reset= 0 
# UVM_INFO ../env//counter_scoreboard.sv(140) @ 30: uvm_test_top.m_env.m_scoreboard [PASS] check = 0 data_out_1 is matched <=> expected = 30 :: 30 = actual
# UVM_INFO ../env//counter_scoreboard.sv(140) @ 30: uvm_test_top.m_env.m_scoreboard [PASS] check = 1 data_out_1 is matched <=> expected = 30 :: 30 = actual
# UVM_INFO ../env//counter_scoreboard.sv(113) @ 30: uvm_test_top.m_env.m_scoreboard [PREV VALUE] prev_data_out[0] = 0, m_ref_trans[0].temp_data_out = 30,m_ref_trans[0].temp_enable = 1, m_ref_trans[0].temp_updown = 1, reset= 0 
# UVM_INFO ../env//counter_scoreboard.sv(113) @ 30: uvm_test_top.m_env.m_scoreboard [PREV VALUE] prev_data_out[1] = 0, m_ref_trans[1].temp_data_out = 30,m_ref_trans[1].temp_enable = 1, m_ref_trans[1].temp_updown = 0, reset= 0 
# UVM_INFO ../env//counter_scoreboard.sv(140) @ 50: uvm_test_top.m_env.m_scoreboard [PASS] check = 0 data_out_1 is matched <=> expected = 31 :: 31 = actual
# UVM_INFO ../env//counter_scoreboard.sv(140) @ 50: uvm_test_top.m_env.m_scoreboard [PASS] check = 1 data_out_1 is matched <=> expected = 31 :: 31 = actual
# UVM_INFO ../env//counter_scoreboard.sv(113) @ 50: uvm_test_top.m_env.m_scoreboard [PREV VALUE] prev_data_out[0] = 30, m_ref_trans[0].temp_data_out = 31,m_ref_trans[0].temp_enable = 1, m_ref_trans[0].temp_updown = 1, reset= 0 
# UVM_INFO ../env//counter_scoreboard.sv(113) @ 50: uvm_test_top.m_env.m_scoreboard [PREV VALUE] prev_data_out[1] = 30, m_ref_trans[1].temp_data_out = 31,m_ref_trans[1].temp_enable = 1, m_ref_trans[1].temp_updown = 1, reset= 0 
# UVM_INFO ../env//counter_scoreboard.sv(140) @ 70: uvm_test_top.m_env.m_scoreboard [PASS] check = 0 data_out_1 is matched <=> expected = 32 :: 32 = actual
# UVM_INFO ../env//counter_scoreboard.sv(140) @ 70: uvm_test_top.m_env.m_scoreboard [PASS] check = 1 data_out_1 is matched <=> expected = 32 :: 32 = actual
# UVM_INFO ../env//counter_scoreboard.sv(113) @ 70: uvm_test_top.m_env.m_scoreboard [PREV VALUE] prev_data_out[0] = 31, m_ref_trans[0].temp_data_out = 32,m_ref_trans[0].temp_enable = 1, m_ref_trans[0].temp_updown = 1, reset= 0 
# UVM_INFO ../env//counter_scoreboard.sv(113) @ 70: uvm_test_top.m_env.m_scoreboard [PREV VALUE] prev_data_out[1] = 31, m_ref_trans[1].temp_data_out = 32,m_ref_trans[1].temp_enable = 1, m_ref_trans[1].temp_updown = 1, reset= 0 
# UVM_INFO ../env//counter_scoreboard.sv(140) @ 90: uvm_test_top.m_env.m_scoreboard [PASS] check = 0 data_out_1 is matched <=> expected = 33 :: 33 = actual
# UVM_INFO ../env//counter_scoreboard.sv(140) @ 90: uvm_test_top.m_env.m_scoreboard [PASS] check = 1 data_out_1 is matched <=> expected = 33 :: 33 = actual
# UVM_INFO ../env//counter_scoreboard.sv(113) @ 90: uvm_test_top.m_env.m_scoreboard [PREV VALUE] prev_data_out[0] = 32, m_ref_trans[0].temp_data_out = 33,m_ref_trans[0].temp_enable = 1, m_ref_trans[0].temp_updown = 1, reset= 0 
# UVM_INFO ../env//counter_scoreboard.sv(113) @ 90: uvm_test_top.m_env.m_scoreboard [PREV VALUE] prev_data_out[1] = 32, m_ref_trans[1].temp_data_out = 33,m_ref_trans[1].temp_enable = 1, m_ref_trans[1].temp_updown = 1, reset= 0 
# UVM_INFO ../env//counter_scoreboard.sv(140) @ 110: uvm_test_top.m_env.m_scoreboard [PASS] check = 0 data_out_1 is matched <=> expected = 34 :: 34 = actual
# UVM_INFO ../env//counter_scoreboard.sv(140) @ 110: uvm_test_top.m_env.m_scoreboard [PASS] check = 1 data_out_1 is matched <=> expected = 34 :: 34 = actual
# UVM_INFO ../env//counter_scoreboard.sv(113) @ 110: uvm_test_top.m_env.m_scoreboard [PREV VALUE] prev_data_out[0] = 33, m_ref_trans[0].temp_data_out = 34,m_ref_trans[0].temp_enable = 1, m_ref_trans[0].temp_updown = 1, reset= 0 
# UVM_INFO ../env//counter_scoreboard.sv(113) @ 110: uvm_test_top.m_env.m_scoreboard [PREV VALUE] prev_data_out[1] = 33, m_ref_trans[1].temp_data_out = 34,m_ref_trans[1].temp_enable = 1, m_ref_trans[1].temp_updown = 1, reset= 0 
# UVM_INFO ../env//counter_env.sv(117) @ 120: uvm_test_top.m_env [] -------*********---------------------reset is applied-------------**********-----------
# UVM_ERROR ../env//counter_scoreboard.sv(144) @ 130: uvm_test_top.m_env.m_scoreboard [FAIL] check = 0 data_out_1 is mismatch <=> expected = 35 :: 0 = actual
# UVM_ERROR ../env//counter_scoreboard.sv(144) @ 130: uvm_test_top.m_env.m_scoreboard [FAIL] check = 1 data_out_1 is mismatch <=> expected = 35 :: 0 = actual
# UVM_INFO ../env//counter_scoreboard.sv(113) @ 130: uvm_test_top.m_env.m_scoreboard [PREV VALUE] prev_data_out[0] = 34, m_ref_trans[0].temp_data_out = 35,m_ref_trans[0].temp_enable = 1, m_ref_trans[0].temp_updown = 1, reset= 1 
# UVM_INFO ../env//counter_scoreboard.sv(113) @ 130: uvm_test_top.m_env.m_scoreboard [PREV VALUE] prev_data_out[1] = 34, m_ref_trans[1].temp_data_out = 35,m_ref_trans[1].temp_enable = 1, m_ref_trans[1].temp_updown = 1, reset= 1 
# UVM_INFO ../env//counter_env.sv(125) @ 139: uvm_test_top.m_env [] --------********---------------------reset is removed--------------**********----------
# rst_width : 19, time : 139
# UVM_ERROR ../env//counter_scoreboard.sv(144) @ 150: uvm_test_top.m_env.m_scoreboard [FAIL] check = 0 data_out_1 is mismatch <=> expected = 36 :: 1 = actual
# UVM_ERROR ../env//counter_scoreboard.sv(144) @ 150: uvm_test_top.m_env.m_scoreboard [FAIL] check = 1 data_out_1 is mismatch <=> expected = 36 :: 1 = actual
# UVM_INFO ../env//counter_scoreboard.sv(113) @ 150: uvm_test_top.m_env.m_scoreboard [PREV VALUE] prev_data_out[0] = 35, m_ref_trans[0].temp_data_out = 36,m_ref_trans[0].temp_enable = 1, m_ref_trans[0].temp_updown = 1, reset= 0 
# UVM_INFO ../env//counter_scoreboard.sv(113) @ 150: uvm_test_top.m_env.m_scoreboard [PREV VALUE] prev_data_out[1] = 35, m_ref_trans[1].temp_data_out = 36,m_ref_trans[1].temp_enable = 1, m_ref_trans[1].temp_updown = 1, reset= 0 
# UVM_ERROR ../env//counter_scoreboard.sv(144) @ 170: uvm_test_top.m_env.m_scoreboard [FAIL] check = 0 data_out_1 is mismatch <=> expected = 37 :: 2 = actual
# UVM_ERROR ../env//counter_scoreboard.sv(144) @ 170: uvm_test_top.m_env.m_scoreboard [FAIL] check = 1 data_out_1 is mismatch <=> expected = 37 :: 2 = actual
# UVM_INFO ../env//counter_scoreboard.sv(113) @ 170: uvm_test_top.m_env.m_scoreboard [PREV VALUE] prev_data_out[0] = 36, m_ref_trans[0].temp_data_out = 37,m_ref_trans[0].temp_enable = 1, m_ref_trans[0].temp_updown = 1, reset= 0 
# UVM_INFO ../env//counter_scoreboard.sv(113) @ 170: uvm_test_top.m_env.m_scoreboard [PREV VALUE] prev_data_out[1] = 36, m_ref_trans[1].temp_data_out = 37,m_ref_trans[1].temp_enable = 1, m_ref_trans[1].temp_updown = 1, reset= 0 
# UVM_ERROR ../env//counter_scoreboard.sv(144) @ 190: uvm_test_top.m_env.m_scoreboard [FAIL] check = 0 data_out_1 is mismatch <=> expected = 38 :: 3 = actual
# UVM_ERROR ../env//counter_scoreboard.sv(144) @ 190: uvm_test_top.m_env.m_scoreboard [FAIL] check = 1 data_out_1 is mismatch <=> expected = 38 :: 3 = actual
# UVM_INFO ../env//counter_scoreboard.sv(113) @ 190: uvm_test_top.m_env.m_scoreboard [PREV VALUE] prev_data_out[0] = 37, m_ref_trans[0].temp_data_out = 38,m_ref_trans[0].temp_enable = 1, m_ref_trans[0].temp_updown = 1, reset= 0 
# UVM_INFO ../env//counter_scoreboard.sv(113) @ 190: uvm_test_top.m_env.m_scoreboard [PREV VALUE] prev_data_out[1] = 37, m_ref_trans[1].temp_data_out = 38,m_ref_trans[1].temp_enable = 1, m_ref_trans[1].temp_updown = 1, reset= 0 
# UVM_INFO ../env//counter_env.sv(117) @ 205: uvm_test_top.m_env [] -------*********---------------------reset is applied-------------**********-----------
# UVM_ERROR ../env//counter_scoreboard.sv(144) @ 210: uvm_test_top.m_env.m_scoreboard [FAIL] check = 0 data_out_1 is mismatch <=> expected = 39 :: 0 = actual
# UVM_ERROR ../env//counter_scoreboard.sv(144) @ 210: uvm_test_top.m_env.m_scoreboard [FAIL] check = 1 data_out_1 is mismatch <=> expected = 39 :: 0 = actual
# UVM_INFO ../env//counter_scoreboard.sv(113) @ 210: uvm_test_top.m_env.m_scoreboard [PREV VALUE] prev_data_out[0] = 38, m_ref_trans[0].temp_data_out = 39,m_ref_trans[0].temp_enable = 1, m_ref_trans[0].temp_updown = 1, reset= 1 
# UVM_INFO ../env//counter_scoreboard.sv(113) @ 210: uvm_test_top.m_env.m_scoreboard [PREV VALUE] prev_data_out[1] = 38, m_ref_trans[1].temp_data_out = 39,m_ref_trans[1].temp_enable = 1, m_ref_trans[1].temp_updown = 1, reset= 1 
# UVM_INFO ../env//counter_env.sv(125) @ 225: uvm_test_top.m_env [] --------********---------------------reset is removed--------------**********----------
# rst_width : 20, time : 225
# UVM_ERROR ../env//counter_scoreboard.sv(144) @ 230: uvm_test_top.m_env.m_scoreboard [FAIL] check = 0 data_out_1 is mismatch <=> expected = 0 :: 1 = actual
# UVM_ERROR ../env//counter_scoreboard.sv(144) @ 230: uvm_test_top.m_env.m_scoreboard [FAIL] check = 1 data_out_1 is mismatch <=> expected = 0 :: 1 = actual
# UVM_INFO ../env//counter_scoreboard.sv(113) @ 230: uvm_test_top.m_env.m_scoreboard [PREV VALUE] prev_data_out[0] = 39, m_ref_trans[0].temp_data_out = 0,m_ref_trans[0].temp_enable = 1, m_ref_trans[0].temp_updown = 1, reset= 0 
# UVM_INFO ../env//counter_scoreboard.sv(113) @ 230: uvm_test_top.m_env.m_scoreboard [PREV VALUE] prev_data_out[1] = 39, m_ref_trans[1].temp_data_out = 0,m_ref_trans[1].temp_enable = 1, m_ref_trans[1].temp_updown = 1, reset= 0 
# UVM_ERROR ../env//counter_scoreboard.sv(144) @ 250: uvm_test_top.m_env.m_scoreboard [FAIL] check = 0 data_out_1 is mismatch <=> expected = 0 :: 2 = actual
# UVM_ERROR ../env//counter_scoreboard.sv(144) @ 250: uvm_test_top.m_env.m_scoreboard [FAIL] check = 1 data_out_1 is mismatch <=> expected = 0 :: 2 = actual
# UVM_INFO ../env//counter_scoreboard.sv(113) @ 250: uvm_test_top.m_env.m_scoreboard [PREV VALUE] prev_data_out[0] = 0, m_ref_trans[0].temp_data_out = 0,m_ref_trans[0].temp_enable = 1, m_ref_trans[0].temp_updown = 1, reset= 0 
# UVM_INFO ../env//counter_scoreboard.sv(113) @ 250: uvm_test_top.m_env.m_scoreboard [PREV VALUE] prev_data_out[1] = 0, m_ref_trans[1].temp_data_out = 0,m_ref_trans[1].temp_enable = 1, m_ref_trans[1].temp_updown = 1, reset= 0 
# UVM_ERROR ../env//counter_scoreboard.sv(144) @ 270: uvm_test_top.m_env.m_scoreboard [FAIL] check = 0 data_out_1 is mismatch <=> expected = 0 :: 3 = actual
# UVM_ERROR ../env//counter_scoreboard.sv(144) @ 270: uvm_test_top.m_env.m_scoreboard [FAIL] check = 1 data_out_1 is mismatch <=> expected = 0 :: 3 = actual
# UVM_INFO ../env//counter_scoreboard.sv(113) @ 270: uvm_test_top.m_env.m_scoreboard [PREV VALUE] prev_data_out[0] = 0, m_ref_trans[0].temp_data_out = 0,m_ref_trans[0].temp_enable = 1, m_ref_trans[0].temp_updown = 1, reset= 0 
# UVM_INFO ../env//counter_scoreboard.sv(113) @ 270: uvm_test_top.m_env.m_scoreboard [PREV VALUE] prev_data_out[1] = 0, m_ref_trans[1].temp_data_out = 0,m_ref_trans[1].temp_enable = 1, m_ref_trans[1].temp_updown = 1, reset= 0 
# UVM_ERROR ../env//counter_scoreboard.sv(144) @ 290: uvm_test_top.m_env.m_scoreboard [FAIL] check = 0 data_out_1 is mismatch <=> expected = 0 :: 4 = actual
# UVM_ERROR ../env//counter_scoreboard.sv(144) @ 290: uvm_test_top.m_env.m_scoreboard [FAIL] check = 1 data_out_1 is mismatch <=> expected = 0 :: 4 = actual
# UVM_INFO ../env//counter_scoreboard.sv(113) @ 290: uvm_test_top.m_env.m_scoreboard [PREV VALUE] prev_data_out[0] = 0, m_ref_trans[0].temp_data_out = 0,m_ref_trans[0].temp_enable = 1, m_ref_trans[0].temp_updown = 1, reset= 0 
# UVM_INFO ../env//counter_scoreboard.sv(113) @ 290: uvm_test_top.m_env.m_scoreboard [PREV VALUE] prev_data_out[1] = 0, m_ref_trans[1].temp_data_out = 0,m_ref_trans[1].temp_enable = 1, m_ref_trans[1].temp_updown = 1, reset= 0 
# UVM_ERROR ../env//counter_scoreboard.sv(144) @ 310: uvm_test_top.m_env.m_scoreboard [FAIL] check = 0 data_out_1 is mismatch <=> expected = 0 :: 5 = actual
# UVM_ERROR ../env//counter_scoreboard.sv(144) @ 310: uvm_test_top.m_env.m_scoreboard [FAIL] check = 1 data_out_1 is mismatch <=> expected = 0 :: 5 = actual
# UVM_INFO ../env//counter_scoreboard.sv(113) @ 310: uvm_test_top.m_env.m_scoreboard [PREV VALUE] prev_data_out[0] = 0, m_ref_trans[0].temp_data_out = 0,m_ref_trans[0].temp_enable = 1, m_ref_trans[0].temp_updown = 1, reset= 0 
# UVM_INFO ../env//counter_scoreboard.sv(113) @ 310: uvm_test_top.m_env.m_scoreboard [PREV VALUE] prev_data_out[1] = 0, m_ref_trans[1].temp_data_out = 0,m_ref_trans[1].temp_enable = 1, m_ref_trans[1].temp_updown = 1, reset= 0 
# UVM_ERROR ../env//counter_scoreboard.sv(144) @ 330: uvm_test_top.m_env.m_scoreboard [FAIL] check = 0 data_out_1 is mismatch <=> expected = 0 :: 6 = actual
# UVM_ERROR ../env//counter_scoreboard.sv(144) @ 330: uvm_test_top.m_env.m_scoreboard [FAIL] check = 1 data_out_1 is mismatch <=> expected = 0 :: 6 = actual
# UVM_INFO ../env//counter_scoreboard.sv(113) @ 330: uvm_test_top.m_env.m_scoreboard [PREV VALUE] prev_data_out[0] = 0, m_ref_trans[0].temp_data_out = 0,m_ref_trans[0].temp_enable = 1, m_ref_trans[0].temp_updown = 1, reset= 0 
# UVM_INFO ../env//counter_scoreboard.sv(113) @ 330: uvm_test_top.m_env.m_scoreboard [PREV VALUE] prev_data_out[1] = 0, m_ref_trans[1].temp_data_out = 0,m_ref_trans[1].temp_enable = 1, m_ref_trans[1].temp_updown = 1, reset= 0 
# UVM_ERROR ../env//counter_scoreboard.sv(144) @ 350: uvm_test_top.m_env.m_scoreboard [FAIL] check = 0 data_out_1 is mismatch <=> expected = 0 :: 20 = actual
# UVM_ERROR ../env//counter_scoreboard.sv(144) @ 350: uvm_test_top.m_env.m_scoreboard [FAIL] check = 1 data_out_1 is mismatch <=> expected = 0 :: 20 = actual
# UVM_INFO ../env//counter_scoreboard.sv(113) @ 350: uvm_test_top.m_env.m_scoreboard [PREV VALUE] prev_data_out[0] = 0, m_ref_trans[0].temp_data_out = 0,m_ref_trans[0].temp_enable = 1, m_ref_trans[0].temp_updown = 1, reset= 0 
# UVM_INFO ../env//counter_scoreboard.sv(113) @ 350: uvm_test_top.m_env.m_scoreboard [PREV VALUE] prev_data_out[1] = 0, m_ref_trans[1].temp_data_out = 0,m_ref_trans[1].temp_enable = 1, m_ref_trans[1].temp_updown = 1, reset= 0 
# UVM_ERROR ../env//counter_scoreboard.sv(144) @ 370: uvm_test_top.m_env.m_scoreboard [FAIL] check = 0 data_out_1 is mismatch <=> expected = 0 :: 21 = actual
# UVM_ERROR ../env//counter_scoreboard.sv(144) @ 370: uvm_test_top.m_env.m_scoreboard [FAIL] check = 1 data_out_1 is mismatch <=> expected = 0 :: 21 = actual
# UVM_INFO ../env//counter_scoreboard.sv(113) @ 370: uvm_test_top.m_env.m_scoreboard [PREV VALUE] prev_data_out[0] = 0, m_ref_trans[0].temp_data_out = 0,m_ref_trans[0].temp_enable = 1, m_ref_trans[0].temp_updown = 1, reset= 0 
# UVM_INFO ../env//counter_scoreboard.sv(113) @ 370: uvm_test_top.m_env.m_scoreboard [PREV VALUE] prev_data_out[1] = 0, m_ref_trans[1].temp_data_out = 0,m_ref_trans[1].temp_enable = 1, m_ref_trans[1].temp_updown = 1, reset= 0 
# UVM_ERROR ../env//counter_scoreboard.sv(144) @ 390: uvm_test_top.m_env.m_scoreboard [FAIL] check = 0 data_out_1 is mismatch <=> expected = 0 :: 22 = actual
# UVM_ERROR ../env//counter_scoreboard.sv(144) @ 390: uvm_test_top.m_env.m_scoreboard [FAIL] check = 1 data_out_1 is mismatch <=> expected = 0 :: 22 = actual
# UVM_INFO ../env//counter_scoreboard.sv(113) @ 390: uvm_test_top.m_env.m_scoreboard [PREV VALUE] prev_data_out[0] = 0, m_ref_trans[0].temp_data_out = 0,m_ref_trans[0].temp_enable = 1, m_ref_trans[0].temp_updown = 1, reset= 0 
# UVM_INFO ../env//counter_scoreboard.sv(113) @ 390: uvm_test_top.m_env.m_scoreboard [PREV VALUE] prev_data_out[1] = 0, m_ref_trans[1].temp_data_out = 0,m_ref_trans[1].temp_enable = 1, m_ref_trans[1].temp_updown = 1, reset= 0 
# UVM_INFO ../env//counter_env.sv(117) @ 410: uvm_test_top.m_env [] -------*********---------------------reset is applied-------------**********-----------
# UVM_INFO ../env//counter_scoreboard.sv(140) @ 410: uvm_test_top.m_env.m_scoreboard [PASS] check = 0 data_out_1 is matched <=> expected = 0 :: 0 = actual
# UVM_INFO ../env//counter_scoreboard.sv(140) @ 410: uvm_test_top.m_env.m_scoreboard [PASS] check = 1 data_out_1 is matched <=> expected = 0 :: 0 = actual
# UVM_INFO ../env//counter_scoreboard.sv(113) @ 410: uvm_test_top.m_env.m_scoreboard [PREV VALUE] prev_data_out[0] = 0, m_ref_trans[0].temp_data_out = 0,m_ref_trans[0].temp_enable = 1, m_ref_trans[0].temp_updown = 1, reset= 1 
# UVM_INFO ../env//counter_scoreboard.sv(113) @ 410: uvm_test_top.m_env.m_scoreboard [PREV VALUE] prev_data_out[1] = 0, m_ref_trans[1].temp_data_out = 0,m_ref_trans[1].temp_enable = 1, m_ref_trans[1].temp_updown = 1, reset= 1 
# UVM_INFO ../env//counter_scoreboard.sv(140) @ 430: uvm_test_top.m_env.m_scoreboard [PASS] check = 0 data_out_1 is matched <=> expected = 0 :: 0 = actual
# UVM_INFO ../env//counter_scoreboard.sv(140) @ 430: uvm_test_top.m_env.m_scoreboard [PASS] check = 1 data_out_1 is matched <=> expected = 0 :: 0 = actual
# UVM_INFO ../env//counter_scoreboard.sv(113) @ 430: uvm_test_top.m_env.m_scoreboard [PREV VALUE] prev_data_out[0] = 0, m_ref_trans[0].temp_data_out = 0,m_ref_trans[0].temp_enable = 1, m_ref_trans[0].temp_updown = 1, reset= 1 
# UVM_INFO ../env//counter_scoreboard.sv(113) @ 430: uvm_test_top.m_env.m_scoreboard [PREV VALUE] prev_data_out[1] = 0, m_ref_trans[1].temp_data_out = 0,m_ref_trans[1].temp_enable = 1, m_ref_trans[1].temp_updown = 1, reset= 1 
# UVM_INFO ../env//counter_env.sv(125) @ 431: uvm_test_top.m_env [] --------********---------------------reset is removed--------------**********----------
# rst_width : 21, time : 431
# UVM_ERROR ../env//counter_scoreboard.sv(144) @ 450: uvm_test_top.m_env.m_scoreboard [FAIL] check = 0 data_out_1 is mismatch <=> expected = 0 :: 1 = actual
# UVM_ERROR ../env//counter_scoreboard.sv(144) @ 450: uvm_test_top.m_env.m_scoreboard [FAIL] check = 1 data_out_1 is mismatch <=> expected = 0 :: 1 = actual
# UVM_INFO ../env//counter_scoreboard.sv(113) @ 450: uvm_test_top.m_env.m_scoreboard [PREV VALUE] prev_data_out[0] = 0, m_ref_trans[0].temp_data_out = 0,m_ref_trans[0].temp_enable = 1, m_ref_trans[0].temp_updown = 1, reset= 0 
# UVM_INFO ../env//counter_scoreboard.sv(113) @ 450: uvm_test_top.m_env.m_scoreboard [PREV VALUE] prev_data_out[1] = 0, m_ref_trans[1].temp_data_out = 0,m_ref_trans[1].temp_enable = 1, m_ref_trans[1].temp_updown = 1, reset= 0 
# UVM_ERROR ../env//counter_scoreboard.sv(144) @ 470: uvm_test_top.m_env.m_scoreboard [FAIL] check = 0 data_out_1 is mismatch <=> expected = 0 :: 2 = actual
# UVM_ERROR ../env//counter_scoreboard.sv(144) @ 470: uvm_test_top.m_env.m_scoreboard [FAIL] check = 1 data_out_1 is mismatch <=> expected = 0 :: 2 = actual
